{
	"sheets":[{
		"id":0,
		"name":"Enemy",
		"workspace":"Sheets",
		"created":"2014-04-04T16:21:19-06:00",
		"modified":"2014-04-04T16:21:19-06:00",
		"creatorId":0,
		"ownerId":0,
		"collaborators":[{
			"sharedBy":0,
			"created":"2014-04-04T16:21:19-06:00",
			"userId":0
		}],
		"loadCount":0
		}
	],
	"users":[{
		"userId":0,
		"email":"rmadsen@synaptixgames.com",
		"firstName":"Robert",
		"lastName":"Madsen",
		"firstShared":"2014-03-07T14:42:23-07:00"
	}]
} 
